<?xml version="1.0" encoding="utf-8"?>
<!-- Generator: Adobe Illustrator 25.3.1, SVG Export Plug-In . SVG Version: 6.00 Build 0)  -->
<svg version="1.1" id="Calque_1" xmlns="http://www.w3.org/2000/svg" xmlns:xlink="http://www.w3.org/1999/xlink" x="0px" y="0px"
	 viewBox="0 0 1346.3 138.3" style="enable-background:new 0 0 1346.3 138.3;" xml:space="preserve">
<style type="text/css">
	.st0{fill:#FFFFFF;}
	.st1{fill:none;}
</style>
<path class="st0" d="M120.3,9.3H12.4C5.6,9.4,0,14.9,0,21.8v67.8C0,96.4,5.6,102,12.4,102c0,0,0,0,0,0h107.8
	c6.9,0,12.4-5.6,12.5-12.4V21.8C132.7,14.9,127.1,9.3,120.3,9.3z M118.3,17.6L66.4,55L14.5,17.6L118.3,17.6z M120.3,93.7H12.4
	c-2.3,0-4.1-1.9-4.2-4.1V23.4l55.6,40.1c0.7,0.5,1.6,0.8,2.4,0.8c0.9,0,1.7-0.3,2.4-0.8l55.6-40.1v66.1
	C124.4,91.8,122.6,93.7,120.3,93.7C120.3,93.7,120.3,93.7,120.3,93.7z"/>
<path class="st0" d="M926.1,136.4c1.1,1.2,2.7,1.9,4.4,1.9c2.2,0,4.3-1.1,6.4-3.1l25.9-25.8c3.2-2.8,7.2-4.5,11.5-4.8h62.1
	c7,0,12.7-5.7,12.7-12.7V24.1c0-7-5.7-12.7-12.7-12.7H926.5c-7,0-12.7,5.7-12.7,12.7v67.8c0,7.1,4.3,12.7,9.8,12.7l0,0
	c0.4,0.2,1.4,1.6,1.3,4.1l-0.9,20.9C923.8,132.5,924.5,134.8,926.1,136.4L926.1,136.4z M923.9,96.1L923.9,96.1
	c-0.4-0.2-1.6-1.7-1.6-4.2V24.1c0-2.3,1.9-4.2,4.2-4.2l0,0h109.8c2.3,0,4.2,1.9,4.2,4.2c0,0,0,0,0,0v67.8c0,2.3-1.9,4.2-4.2,4.2
	h-62.1c-6.5,0.3-12.7,2.8-17.5,7.2l-24.2,24.1l0.8-18.5c0.3-3.7-0.9-7.3-3.4-10.1C928.5,97.2,926.3,96.2,923.9,96.1L923.9,96.1z"/>
<path class="st0" d="M938.8,41.9h85.3c2.3,0.1,4.3-1.7,4.4-4c0.1-2.3-1.7-4.3-4-4.4c-0.1,0-0.3,0-0.4,0h-85.3
	c-2.3-0.1-4.3,1.7-4.4,4s1.7,4.3,4,4.4C938.5,41.9,938.6,41.9,938.8,41.9z"/>
<path class="st0" d="M938.8,63h85.3c2.3,0,4.2-1.9,4.2-4.2c0-2.3-1.9-4.2-4.2-4.2c0,0,0,0,0,0h-85.3c-2.3,0-4.2,1.9-4.2,4.2
	C934.5,61.1,936.4,63,938.8,63C938.7,63,938.7,63,938.8,63z"/>
<path class="st0" d="M938.8,84.3h59.7c2.3,0.1,4.3-1.7,4.4-4c0.1-2.3-1.7-4.3-4-4.4c-0.1,0-0.3,0-0.4,0h-59.7
	c-2.3-0.1-4.3,1.7-4.4,4c-0.1,2.3,1.7,4.3,4,4.4C938.5,84.3,938.6,84.3,938.8,84.3z"/>
<path class="st0" d="M713.7,8.1c-1.6-1.5-3.6-2.4-5.8-2.3c-2.2,0-4.2,0.9-5.8,2.4l-3.7,3.7V12l-48.5,48.4c-0.1,0.2-0.3,0.3-0.4,0.5
	c-0.2,0.2-0.4,0.5-0.5,0.8L644,73c-0.7,1.6,0.1,3.4,1.6,4.1c0.4,0.2,0.8,0.3,1.2,0.3c0.4,0,0.7-0.1,1.1-0.2l11.9-4.5
	c0.3-0.1,0.6-0.3,0.9-0.5c0.2-0.1,0.4-0.2,0.5-0.4L710,23.2l0,0l3.6-3.5C716.8,16.5,716.8,11.3,713.7,8.1L713.7,8.1z M659.1,65.2
	l-2.7-2.7l44.3-44.2l2.7,2.7L659.1,65.2z M709.2,15.3l-1.4,1.4l-2.7-2.6l1.4-1.4c0.4-0.4,0.9-0.6,1.5-0.6c0.5,0,1,0.2,1.3,0.5
	C710,13.3,710,14.6,709.2,15.3L709.2,15.3z"/>
<path class="st0" d="M707.6,39.6c-1.7,0-3.1,1.4-3.1,3.1c0,0,0,0,0,0v51.1c0,1.7-1.4,3.1-3.1,3.1H628c-1.7,0-3.1-1.4-3.1-3.1V20.6
	c0-1.7,1.4-3.1,3.1-3.1l0,0h50.8c1.7,0.1,3.2-1.2,3.3-2.9c0.1-1.7-1.2-3.2-2.9-3.3c-0.1,0-0.2,0-0.4,0H628c-5.1,0-9.3,4.1-9.3,9.3
	v73.1c0,5.1,4.2,9.2,9.3,9.2h73.3c5.1,0,9.3-4.1,9.3-9.3V42.7C710.6,41,709.3,39.6,707.6,39.6C707.5,39.6,707.5,39.6,707.6,39.6
	L707.6,39.6z"/>
<path class="st0" d="M1346.3,22.5c0-6.8-5.5-12.4-12.3-12.4h-13v-6c0.1-2.3-1.6-4.2-3.9-4.3s-4.2,1.6-4.3,3.9c0,0.1,0,0.3,0,0.4v6
	h-64.3v-6c0-2.3-1.8-4.1-4.1-4.1c-2.3,0-4.1,1.8-4.1,4.1c0,0,0,0,0,0v6h-12.8c-6.8,0-12.3,5.6-12.3,12.4v18.9c0,0.2,0.1,0.4,0.1,0.6
	c-0.1,0.2-0.1,0.4-0.1,0.6v76.1c0,6.8,5.5,12.4,12.3,12.4H1334c6.8,0,12.3-5.6,12.3-12.4V42.6c0-0.2-0.1-0.4-0.1-0.6
	c0.1-0.2,0.1-0.4,0.1-0.6V22.5z M1338.2,118.7c0,2.3-1.8,4.1-4.1,4.1h-106.5c-2.3,0-4.1-1.9-4.1-4.1V46.8h114.7L1338.2,118.7z
	 M1338.2,38.5h-114.7v-16c0-2.3,1.8-4.1,4.1-4.1h12.8v6c0,2.3,1.8,4.1,4.1,4.1c2.3,0,4.1-1.8,4.1-4.1c0,0,0,0,0,0v-6h64.3v6
	c0,2.3,1.8,4.1,4.1,4.1c2.3,0,4.1-1.8,4.1-4.1c0,0,0,0,0,0v-6h13c2.3,0,4.1,1.9,4.1,4.1L1338.2,38.5z"/>
<path class="st0" d="M1262.8,69.3c0,2.3-1.9,4.1-4.1,4.1s-4.1-1.9-4.1-4.1c0-2.3,1.8-4.1,4.1-4.1C1260.9,65.2,1262.8,67,1262.8,69.3
	z"/>
<path class="st0" d="M1282.6,69.3c0,2.3-1.9,4.1-4.1,4.1s-4.1-1.9-4.1-4.1c0-2.3,1.8-4.1,4.1-4.1C1280.7,65.2,1282.6,67,1282.6,69.3
	C1282.6,69.3,1282.6,69.3,1282.6,69.3z"/>
<path class="st0" d="M1304.7,69.3c0,2.3-1.9,4.1-4.1,4.1s-4.1-1.9-4.1-4.1c0-2.3,1.8-4.1,4.1-4.1C1302.9,65.2,1304.7,67,1304.7,69.3
	C1304.7,69.3,1304.7,69.3,1304.7,69.3z"/>
<path class="st0" d="M1327.3,69.3c0,2.3-1.9,4.1-4.1,4.1s-4.1-1.9-4.1-4.1c0-2.3,1.8-4.1,4.1-4.1C1325.5,65.2,1327.3,67,1327.3,69.3
	C1327.3,69.3,1327.3,69.3,1327.3,69.3z"/>
<path class="st0" d="M1242.5,83.6c0,2.3-1.9,4.1-4.1,4.1c-2.3,0-4.1-1.9-4.1-4.1c0-2.3,1.9-4.1,4.1-4.1
	C1240.7,79.5,1242.5,81.3,1242.5,83.6C1242.5,83.6,1242.5,83.6,1242.5,83.6z"/>
<path class="st0" d="M1262.8,83.6c0,2.3-1.9,4.1-4.1,4.1s-4.1-1.9-4.1-4.1c0-2.3,1.8-4.1,4.1-4.1
	C1260.9,79.5,1262.8,81.3,1262.8,83.6z"/>
<path class="st0" d="M1282.6,83.6c0,2.3-1.9,4.1-4.1,4.1s-4.1-1.9-4.1-4.1c0-2.3,1.8-4.1,4.1-4.1
	C1280.7,79.4,1282.6,81.3,1282.6,83.6C1282.6,83.6,1282.6,83.6,1282.6,83.6z"/>
<path class="st0" d="M1304.7,83.6c0,2.3-1.9,4.1-4.1,4.1s-4.1-1.9-4.1-4.1c0-2.3,1.8-4.1,4.1-4.1
	C1302.9,79.4,1304.7,81.3,1304.7,83.6C1304.7,83.6,1304.7,83.6,1304.7,83.6z"/>
<path class="st0" d="M1327.3,83.6c0,2.3-1.9,4.1-4.1,4.1s-4.1-1.9-4.1-4.1c0-2.3,1.8-4.1,4.1-4.1
	C1325.5,79.4,1327.3,81.3,1327.3,83.6C1327.3,83.6,1327.3,83.6,1327.3,83.6z"/>
<path class="st0" d="M1242.5,97.8c0,2.3-1.9,4.1-4.1,4.1c-2.3,0-4.1-1.9-4.1-4.1c0-2.3,1.9-4.1,4.1-4.1
	C1240.7,93.7,1242.5,95.5,1242.5,97.8C1242.5,97.8,1242.5,97.8,1242.5,97.8z"/>
<path class="st0" d="M1262.8,97.8c0,2.3-1.9,4.1-4.1,4.1s-4.1-1.9-4.1-4.1c0-2.3,1.8-4.1,4.1-4.1
	C1260.9,93.7,1262.8,95.5,1262.8,97.8z"/>
<path class="st0" d="M1282.6,97.8c0,2.3-1.9,4.1-4.1,4.1s-4.1-1.9-4.1-4.1c0-2.3,1.8-4.1,4.1-4.1
	C1280.7,93.7,1282.6,95.5,1282.6,97.8C1282.6,97.8,1282.6,97.8,1282.6,97.8z"/>
<path class="st0" d="M1304.7,97.8c0,2.3-1.9,4.1-4.1,4.1s-4.1-1.9-4.1-4.1c0-2.3,1.8-4.1,4.1-4.1
	C1302.9,93.7,1304.7,95.5,1304.7,97.8C1304.7,97.8,1304.7,97.8,1304.7,97.8z"/>
<path class="st0" d="M1327.3,97.8c0,2.3-1.9,4.1-4.1,4.1s-4.1-1.9-4.1-4.1c0-2.3,1.8-4.1,4.1-4.1
	C1325.5,93.7,1327.3,95.5,1327.3,97.8C1327.3,97.8,1327.3,97.8,1327.3,97.8z"/>
<path class="st0" d="M1242.5,112.1c0,2.3-1.9,4.1-4.1,4.1c-2.3,0-4.1-1.9-4.1-4.1c0-2.3,1.9-4.1,4.1-4.1
	C1240.7,108,1242.5,109.8,1242.5,112.1C1242.5,112.1,1242.5,112.1,1242.5,112.1z"/>
<path class="st0" d="M1262.8,112.1c0,2.3-1.9,4.1-4.1,4.1s-4.1-1.9-4.1-4.1c0-2.3,1.8-4.1,4.1-4.1
	C1260.9,108,1262.8,109.8,1262.8,112.1C1262.8,112.1,1262.8,112.1,1262.8,112.1z"/>
<path class="st0" d="M1282.6,112.1c0,2.3-1.9,4.1-4.1,4.1s-4.1-1.9-4.1-4.1c0-2.3,1.8-4.1,4.1-4.1
	C1280.7,108,1282.6,109.8,1282.6,112.1C1282.6,112.1,1282.6,112.1,1282.6,112.1z"/>
<g id="Calque_2_2_">
	<g id="Calque_1-2">
		<path class="st1" d="M346.4,27c-7.7-7.7-20.3-7.8-28,0c0,0,0,0,0,0L301,44.4c-1.2,1.2-1.2,3.1,0,4.3c1.2,1.2,3.1,1.2,4.3,0l0,0
			l17.4-17.4c5.6-5.2,14.3-4.8,19.5,0.8c4.9,5.3,4.9,13.4,0,18.7l-22.9,23c-5.3,5.4-14,5.4-19.4,0.1c0,0,0,0-0.1-0.1
			c-1.2-1.2-3.1-1.2-4.2,0c0,0,0,0,0,0c-1.2,1.2-1.2,3.1-0.1,4.2c0,0,0,0,0.1,0.1c7.7,7.7,20.2,7.8,28,0.1c0,0,0,0,0.1-0.1l23-23
			C354.2,47.3,354.2,34.7,346.4,27z"/>
		<path class="st1" d="M302.7,90l-16.9,17c-5.3,5.4-14,5.4-19.4,0.1c0,0-0.1-0.1-0.1-0.1c-5.3-5.4-5.3-14.1,0-19.5l22.9-23
			c5.4-5.4,14.1-5.4,19.5,0c0,0,0,0,0,0c1.2,1.2,3.1,1.2,4.3,0c1.2-1.2,1.2-3.1,0-4.3l0,0c-7.7-7.7-20.3-7.8-28,0c0,0,0,0,0,0
			l-22.9,23c-7.7,7.8-7.7,20.4,0,28.1c7.7,7.7,20.2,7.8,28,0.1c0,0,0,0,0.1-0.1l17-17c1.2-1.2,1.2-3.1,0-4.2c0,0,0,0,0,0
			C305.9,88.8,304,88.8,302.7,90C302.8,89.9,302.7,90,302.7,90z"/>
	</g>
</g>
</svg>
